,Unnamed: 0,"Months Since
Last Service","Type of
Repair","Repair Time
(hours)",Who
0,0,2,Mecanic,2.9,Andres
1,1,6,Electric,3.0,Andres
2,2,8,Mecanic,4.8,Carlos
3,3,3,Electric,1.8,Andres
4,4,2,Mecanic,2.9,Andres
5,5,7,Mecanic,4.9,Carlos
6,6,9,Electric,4.2,Carlos
7,7,8,Electric,4.8,Carlos
8,8,4,Mecanic,4.4,Carlos
9,9,6,Mecanic,4.5,Andres
